Project 1
…
# saves data only once (not each time you knit a R Markdown)
if (!file.exists(here("data", "chocolate.RDS"))) {
    url_csv <- "https://raw.githubusercontent.com/rfordatascience/tidytuesday/master/data/2022/2022-01-18/chocolate.csv"
    chocolate <- readr::read_csv(url_csv)

    # save the file to RDS objects
    saveRDS(chocolate, file = here("data", "chocolate.RDS"))
}

Here we read in the .RDS dataset locally from our computing environment:

chocolate <- readRDS(here("data", "chocolate.RDS"))
as_tibble(chocolate)

# A tibble: 2,530 × 10
     ref company_manufacturer company_location review_date
   <dbl> <chr>                <chr>                  <dbl>
 1  2454 5150                 U.S.A.                  2019
 2  2458 5150                 U.S.A.                  2019
 3  2454 5150                 U.S.A.                  2019
 4  2542 5150                 U.S.A.                  2021
 5  2546 5150                 U.S.A.                  2021
 6  2546 5150                 U.S.A.                  2021
 7  2542 5150                 U.S.A.                  2021
 8   797 A. Morin             France                  2012
 9   797 A. Morin             France                  2012
10  1011 A. Morin             France                  2013
# ℹ 2,520 more rows
# ℹ 6 more variables: country_of_bean_origin <chr>,
#   specific_bean_origin_or_bar_name <chr>, cocoa_percent <chr>,
#   ingredients <chr>, most_memorable_characteristics <chr>, rating <dbl>
…
I think bins # = 15 gives the best histogram to (1) avoid sharp separations between bins and (2) give a more detail description of the overall trend of rating than 10 bins.

Consider the countries where the beans originated from. How many reviews come from each country of bean origin?

library(dplyr)

country <- chocolate %>% 
  group_by(country_of_bean_origin) %>%
  summarise(number_of_review = n()) %>%
  arrange(desc(number_of_review))

country

# A tibble: 62 × 2
   country_of_bean_origin number_of_review
   <chr>                             <int>
 1 Venezuela                           253
 2 Peru                                244
 3 Dominican Republic                  226
 4 Ecuador                             219
 5 Madagascar                          177
 6 Blend                               156
 7 Nicaragua                           100
 8 Bolivia                              80
 9 Colombia                             79
10 Tanzania                             79
# ℹ 52 more rows
…
The average rating scores from Ecuador chocolate bars is \(3.16\), with standard deviation of \(0.51\). There are a total of \(219\) observations included.

Which company location makes the best chocolate (or has the highest ratings on average) with beans from Ecuador?

library(dplyr)

best_company_ecu <- chocolate %>%
  filter(country_of_bean_origin == "Ecuador") %>%   
  group_by(company_location) %>%
  summarise(avg_rating = mean(rating, na.rm = TRUE)) %>%
  arrange(desc(avg_rating))

best_company_ecu

# A tibble: 25 × 2
   company_location avg_rating
   <chr>                 <dbl>
 1 Australia              3.81
 2 Switzerland            3.75
 3 New Zealand            3.62
 4 Hungary                3.5 
 5 Israel                 3.5 
 6 Netherlands            3.5 
 7 Singapore              3.5 
 8 South Korea            3.33
 9 Canada                 3.28
10 U.S.A.                 3.26
# ℹ 15 more rows
…
# A tibble: 3 × 1
       x
   <dbl>
1  0.521
2 -1.20 
3 -1.04 

## Create a new column that indicates whether the value of 'x' is positive or negative
dat %>%
    mutate(is_positive = case_when(
        x >= 0 ~ "Yes",
        x < 0 ~ "No"
    ))

# A tibble: 100 × 2
         x is_positive
     <dbl> <chr>      
 1  0.521  Yes        
 2 -1.20   No         
 3 -1.04   No         
 4 -0.821  No         
 5 -0.559  No         
 6  1.38   Yes        
 7  0.734  Yes        
 8 -0.270  No         
 9  1.07   Yes        
10 -0.0502 No         
# ℹ 90 more rows
…
  # Previously
  across(a:b, mean, na.rm = TRUE)

  # Now
  across(a:b, \(x) mean(x, na.rm = TRUE))

long_data <- mean_by_year %>%
  pivot_longer(cols = beans:char_earthy,
               names_to = "feature",      
               values_to = "mean_score")

long_data

# A tibble: 192 × 3
   review_date feature      mean_score
         <dbl> <chr>             <dbl>
 1        2006 beans            0.968 
 2        2006 sugar            0.968 
 3        2006 cocoa_butter     0.903 
 4        2006 vanilla          0.694 
 5        2006 lecithin         0.694 
 6        2006 salt             0     
 7        2006 char_cocoa       0.210 
 8        2006 char_sweet       0.161 
 9        2006 char_nutty       0.0323
10        2006 char_creamy      0.242 
# ℹ 182 more rows
…
