Project 2
…
rainfall_histogram("Sydney", 2019)

# A tibble: 302 × 13
   station_code city_name  year rainfall period quality   lat  long station_name
   <chr>        <chr>     <dbl>    <dbl>  <dbl> <chr>   <dbl> <dbl> <chr>       
 1 066062       SYDNEY     2019      8.8      1 N       -33.9  151. Observatory…
 2 066062       SYDNEY     2019      8.8      1 N       -33.9  151. Observatory…
 3 066062       SYDNEY     2019      0        1 N       -33.9  151. Observatory…
 4 066062       SYDNEY     2019      0        1 N       -33.9  151. Observatory…
 5 066062       SYDNEY     2019      0        1 N       -33.9  151. Observatory…
 6 066062       SYDNEY     2019      0        1 N       -33.9  151. Observatory…
 7 066062       SYDNEY     2019      0        1 N       -33.9  151. Observatory…
 8 066062       SYDNEY     2019      0        1 N       -33.9  151. Observatory…
 9 066062       SYDNEY     2019      0        1 N       -33.9  151. Observatory…
10 066062       SYDNEY     2019      0        1 N       -33.9  151. Observatory…
# ℹ 292 more rows
# ℹ 4 more variables: date <date>, temperature <dbl>, temp_type <chr>,
#   site_name <chr>
…
