…
``` r
rainfall_histogram("Sydney", 2019)
```

```
## # A tibble: 302 × 13
##    station_code city_name  year rainfall period quality   lat  long station_name     date       temperature temp_type
##    <chr>        <chr>     <dbl>    <dbl>  <dbl> <chr>   <dbl> <dbl> <chr>            <date>           <dbl> <chr>    
##  1 066062       SYDNEY     2019      8.8      1 N       -33.9  151. Observatory Hill 2019-01-01        31.6 max      
##  2 066062       SYDNEY     2019      8.8      1 N       -33.9  151. Observatory Hill 2019-01-01        21.7 min      
##  3 066062       SYDNEY     2019      0        1 N       -33.9  151. Observatory Hill 2019-01-02        29.8 max      
##  4 066062       SYDNEY     2019      0        1 N       -33.9  151. Observatory Hill 2019-01-02        21.4 min      
##  5 066062       SYDNEY     2019      0        1 N       -33.9  151. Observatory Hill 2019-01-03        28.8 max      
##  6 066062       SYDNEY     2019      0        1 N       -33.9  151. Observatory Hill 2019-01-03        21.4 min      
##  7 066062       SYDNEY     2019      0        1 N       -33.9  151. Observatory Hill 2019-01-04        32.2 max      
##  8 066062       SYDNEY     2019      0        1 N       -33.9  151. Observatory Hill 2019-01-04        20.9 min      
##  9 066062       SYDNEY     2019      0        1 N       -33.9  151. Observatory Hill 2019-01-05        37.8 max      
## 10 066062       SYDNEY     2019      0        1 N       -33.9  151. Observatory Hill 2019-01-05        22.6 min      
## # ℹ 292 more rows
## # ℹ 1 more variable: site_name <chr>
```
…
